{
  "project_info": {
    "project_number": "984575922180",
    "firebase_url": "https://magoratwitter.firebaseio.com",
    "project_id": "magoratwitter",
    "storage_bucket": "magoratwitter.appspot.com"
  },
  "client": [
    {
      "client_info": {
        "mobilesdk_app_id": "1:984575922180:android:1003dc399160a8f6526551",
        "android_client_info": {
          "package_name": "com.systems.magora.twitter.client"
        }
      },
      "oauth_client": [
        {
          "client_id": "984575922180-1vvvg76jj5ddm49he5s1i4au0g2pgl7d.apps.googleusercontent.com",
          "client_type": 1,
          "android_info": {
            "package_name": "com.systems.magora.twitter.client",
            "certificate_hash": "b7885635309a11ca5f481c1b585268c8b638b900"
          }
        },
        {
          "client_id": "984575922180-mdckkpe8b4436i6likh797t4mvqj9jc5.apps.googleusercontent.com",
          "client_type": 3
        }
      ],
      "api_key": [
        {
          "current_key": "AIzaSyBNJjaID4hAIOEsekJh3eeSiLJ_kiBy0N8"
        }
      ],
      "services": {
        "appinvite_service": {
          "other_platform_oauth_client": [
            {
              "client_id": "984575922180-mdckkpe8b4436i6likh797t4mvqj9jc5.apps.googleusercontent.com",
              "client_type": 3
            }
          ]
        }
      }
    },
    {
      "client_info": {
        "mobilesdk_app_id": "1:984575922180:android:593446c9d47a9560526551",
        "android_client_info": {
          "package_name": "ru.system.magora.twitter"
        }
      },
      "oauth_client": [
        {
          "client_id": "984575922180-42j6jqh9etsggdrns23ubk6ql3darhaf.apps.googleusercontent.com",
          "client_type": 1,
          "android_info": {
            "package_name": "ru.system.magora.twitter",
            "certificate_hash": "b7885635309a11ca5f481c1b585268c8b638b900"
          }
        },
        {
          "client_id": "984575922180-mdckkpe8b4436i6likh797t4mvqj9jc5.apps.googleusercontent.com",
          "client_type": 3
        }
      ],
      "api_key": [
        {
          "current_key": "AIzaSyBNJjaID4hAIOEsekJh3eeSiLJ_kiBy0N8"
        }
      ],
      "services": {
        "appinvite_service": {
          "other_platform_oauth_client": [
            {
              "client_id": "984575922180-mdckkpe8b4436i6likh797t4mvqj9jc5.apps.googleusercontent.com",
              "client_type": 3
            }
          ]
        }
      }
    }
  ],
  "configuration_version": "1"
}